Training and Visualizing Topic Models with ggplot2
…
  finance_slots <- which(doc_df$topic == "finance")
  # Now we know how many words to sample from each
  politics_words <- sample(word_dists[["politics"]]$word, length(politics_slots), replace = T, prob = word_dists[["politics"]]$p)
  arts_words <- sample(word_dists[["arts"]]$word, length(arts_slots), replace = T, prob = word_dists[["arts"]]$p)
  finance_words <- sample(word_dists[["finance"]]$word, length(finance_slots), replace = T, prob = word_dists[["finance"]]$p)
  # Now fill in the slots
  doc_df[politics_slots,"word"] = politics_words
  doc_df[arts_slots,"word"] = arts_words
  doc_df[finance_slots,"word"] = finance_words
  return(doc_df)
}
doc_df <- generateDoc(topic_dist, word_dists, 50)
print(doc_df)

## # A tibble: 50 x 2
##    topic    word     
##    <chr>    <chr>    
##  1 finance  artist   
##  2 arts     portfolio
##  3 politics election 
##  4 arts     portfolio
##  5 politics coup     
##  6 finance  stock    
##  7 politics election 
##  8 arts     portfolio
##  9 politics coup     
## 10 arts     artist   
## # ... with 40 more rows
…
