Named Entity Recognition
…
##  5 issu… OTHER  0.0255  <NA>  <NA>                0.1  -0.1         266
##  6 prog… OTHER  0.0134  <NA>  <NA>                0.9   0.9         476
##  7 pros… OTHER  0.00844 <NA>  <NA>                0.9  -0.9         369
##  8 scie… OTHER  0.0134  <NA>  <NA>                0.8   0.8         488
##  9 times OTHER  0.469   <NA>  <NA>                0.1  -0.1           9
## 10 times OTHER  0.469   <NA>  <NA>                0.1  -0.1         213
## 11 times OTHER  0.0434  <NA>  <NA>                0.9   0.9           9
## 12 times OTHER  0.0434  <NA>  <NA>                0.9   0.9         213
## 13 world LOCA…  0.0454  <NA>  <NA>                1.3   0.2         414
## # ... with 1 more variable: mention_type <chr>
## 
## 
## [[4]]
## [[4]][[1]]
## # A tibble: 31 x 9
##    name  type  salience mid   wikipedia_url magnitude score beginOffset
##    <chr> <chr>    <dbl> <fct> <fct>             <dbl> <dbl>       <int>
##  1 chal… OTHER  0.00459 <NA>  <NA>                0     0           319
##  2 choi… OTHER  0.0428  <NA>  <NA>                0     0            83
##  3 comm… OTHER  0.00432 <NA>  <NA>                0     0           354
##  4 deve… OTHER  0.0310  <NA>  <NA>                1     0.4         275
##  5 doubt OTHER  0.0143  <NA>  <NA>                0     0           213
##  6 Gene… ORGA…  0.0173  <NA>  <NA>                0     0           137
##  7 issu… OTHER  0.0131  <NA>  <NA>                0     0           235
##  8 lif   OTHER  0.00686 <NA>  <NA>                0.1   0.1         497
##  9 life  OTHER  0.0143  <NA>  <NA>                0.1   0.1         194
## 10 link  OTHER  0.107   <NA>  <NA>                0     0           159
## # ... with 21 more rows, and 1 more variable: mention_type <chr>
…
